SwissHistMunData: Historicized Swiss Municipalities — SwissHistMunData-package • SwissHistMunData
…
  Changelog

    SwissHistMunData: Historicized Swiss Municipalities

    SwissHistMunData-package.Rd

    Contains historicized municipality data for
    Switzerland from 1960 onwards, from the "Historisiertes
    Gemeindeverzeichnis" of the Swiss Federal Statistical Office.

    Examples

cantons
#> # A tibble: 26 x 4
#>      cId cAbbreviation cLongName           cDateOfChange
#>    <int> <chr>         <chr>               <date>       
#>  1     1 ZH            Zürich              1960-01-01   
#>  2     2 BE            Bern / Berne        1960-01-01   
#>  3     3 LU            Luzern              1960-01-01   
#>  4     4 UR            Uri                 1960-01-01   
#>  5     5 SZ            Schwyz              1960-01-01   
#>  6     6 OW            Obwalden            1960-01-01   
#>  7     7 NW            Nidwalden           1960-01-01   
#>  8     8 GL            Glarus              1960-01-01   
#>  9     9 ZG            Zug                 1960-01-01   
#> 10    10 FR            Fribourg / Freiburg 1960-01-01   
#> # … with 16 more rows
district_mutations
#> # A tibble: 308 x 13
#>    dHistId   cId   dId dLongName dShortName dEntryMode dAdmissionNumber
#>      <int> <int> <int> <chr>     <chr>      <fct>                 <int>
#>  1   10001    20  2001 Bezirk A… Arbon      District                100
#>  2   10002    21  2106 Distrett… Mendrisio  District                100
#>  3   10003    21  2105 Distrett… Lugano     District                100
#>  4   10004    21  2104 Distrett… Locarno    District                100
#>  5   10005    21  2103 Distrett… Leventina  District                100
#>  6   10006    21  2102 Distrett… Blenio     District                100
#>  7   10007    21  2101 Distrett… Bellinzona District                100
#>  8   10008    20  2008 Bezirk W… Weinfelden District                100
#>  9   10009    20  2007 Bezirk S… Steckborn  District                100
#> 10   10010    20  2006 Bezirk M… Münchwilen District                100
#> # … with 298 more rows, and 6 more variables: dAdmissionMode <fct>,
#> #   dAdmissionDate <date>, dAbolitionNumber <int>, dAbolitionMode <fct>,
#> #   dAbolitionDate <date>, dDateOfChange <date>
municipality_mutations
#> # A tibble: 5,798 x 15
#>    mHistId dHistId cAbbreviation   mId mLongName mShortName mEntryMode mStatus
#>      <int>   <int> <chr>         <int> <chr>     <chr>      <fct>        <int>
#>  1   10001   10189 GR             3501 Alvasche… Alvaschein Municipal…       1
#>  2   10002   10192 SG             3403 Gantersc… Gantersch… Municipal…       1
#>  3   10003   10189 GR             3523 Wiesen (… Wiesen (G… Municipal…       1
#>  4   10004   10189 GR             3522 Filisur   Filisur    Municipal…       1
#>  5   10005   10189 GR             3521 Bergün/B… Bergün/Br… Municipal…       1
#>  6   10006   10189 GR             3515 Surava    Surava     Municipal…       1
#>  7   10007   10189 GR             3514 Schmitte… Schmitten… Municipal…       1
#>  8   10008   10189 GR             3513 Lantsch/… Lantsch/L… Municipal…       1
#>  9   10009   10023 AG             4122 Villnach… Villnache… Municipal…       1
#> 10   10010   10189 GR             3511 Alvaneu   Alvaneu    Municipal…       1
#> # … with 5,788 more rows, and 7 more variables: mAdmissionNumber <int>,
#> #   mAdmissionMode <fct>, mAdmissionDate <date>, mAbolitionNumber <int>,
#> #   mAbolitionMode <fct>, mAbolitionDate <date>, mDateOfChange <date>
…
